<?xml version="1.0" encoding="iso-8859-1"?>
<!-- Generator: Adobe Illustrator 19.0.0, SVG Export Plug-In . SVG Version: 6.00 Build 0)  -->
<svg version="1.1" id="Capa_1" xmlns="http://www.w3.org/2000/svg" xmlns:xlink="http://www.w3.org/1999/xlink" x="0px" y="0px"
	 viewBox="0 0 384 384" style="enable-background:new 0 0 384 384;" xml:space="preserve"
	 fill="#999999" width="16" height="16">
<g>
	<g>
		<path d="M341.333,21.333H42.667C19.093,21.333,0,40.427,0,64v256c0,23.573,19.093,42.667,42.667,42.667h298.667
			C364.907,362.667,384,343.573,384,320V64C384,40.427,364.907,21.333,341.333,21.333z M341.333,320H42.667V64h298.667V320z"/>
	</g>
</g>

</svg>
